Introduction to SBDI4R • SBDI4R
…
The end result:

xgridded[, 1:10]
#> # A tibble: 67 x 10
#>    longitude latitude worldClimAnnualPrecip~ worldClimMeanTemperatureO~ richness
#>        <dbl>    <dbl>                  <dbl>                      <dbl>    <int>
#>  1      15       59                     631.                       15.3       40
#>  2      15       59.2                   648.                       15.4       36
#>  3      15       59.5                   672.                       15.2       38
#>  4      15       59.8                   682.                       15.2       11
#>  5      15.2     59                     625.                       15.5       40
#>  6      15.2     59.2                   633.                       15.8       57
#>  7      15.2     59.5                   655.                       15.6       30
#>  8      15.2     59.8                   661.                       15.6       16
#>  9      15.5     59                     615.                       15.6       31
#> 10      15.5     59.2                   625.                       15.8       43
#> # ... with 57 more rows, and 5 more variables: Anthyllis vulneraria <dbl>,
#> #   Astragalus glycyphyllos <dbl>, Caragana arborescens <dbl>,
#> #   Galega orientalis <dbl>, Genista tinctoria <dbl>
…
